{
    "$schema": "https://themost-framework.github.io/themost/models/2018/2/schema.json",
    "@id": "https://universis.io/schemas/ExceptHoursSpecification",
    "name": "ExceptHoursSpecification",
    "description": "A structured value providing information about exceptions to regular operational hours of a place or a certain service inside a place.",
    "title": "ExceptHoursSpecification",
    "abstract": false,
    "sealed": false,
    "version": "1.1",
    "implements": "EventHoursSpecification",
    "fields": [
        {
            "name": "updateEventStatus",
            "title": "updateEventStatus",
            "description": "Determines whether the status of events that occur during except hours should change automatically.",
            "type": "Boolean",
            "value": "javascript:return true;"
        },
        {
            "name": "eventExceptStatus",
            "title": "eventExceptStatus",
            "description": "The event status that will be assigned to events that occur during except hours.",
            "type": "EventStatusType",
            "value": "javascript:return { alternateName: 'EventCancelled'};"
            
        },
        {
            "name": "academicYear",
            "description": "The academic year associated with this except date.",
            "type": "AcademicYear",
            "nullable": false
        }
    ],
    "eventListeners": [
    ],
    "privileges": [
        {
            "mask": 1,
            "type": "global",
            "account": "*"
        },
        {
            "mask": 15,
            "type": "self",
            "account": "Instructors",
            "filter": "createdBy eq me()"
        },
        {
            "mask": 15,
            "type": "global"
        },
        {
            "mask": 15,
            "type": "global",
            "account": "Administrators"
        }
    ]
}
