{
    "$schema": "https://themost-framework.github.io/themost/models/2018/2/schema.json",
    "@id": "http://schema.org/GeoShape",
    "name": "GeoShape",
    "description": "The geographic shape of a place. A GeoShape can be described using several properties whose values are based on latitude/longitude pairs. Either whitespace or commas can be used to separate latitude and longitude; whitespace should be used when writing a list of several such points.",
    "title": "GeoShape",
    "abstract": false,
    "sealed": false,
    "hidden": true,
    "inherits": "StructuredValue",
    "version": "1.0",
    "fields": [
        {
            "@id": "http://schema.org/line",
            "name": "line",
            "title": "line",
            "description": "A line is a point-to-point path consisting of two or more points. A line is expressed as a series of two or more point objects separated by space.",
            "type": "Text"
        },
        {
            "@id": "http://schema.org/address",
            "name": "address",
            "title": "address",
            "description": "Physical address of the item.",
            "type": "PostalAddress"
        },
        {
            "@id": "http://schema.org/circle",
            "name": "circle",
            "title": "circle",
            "description": "A circle is the circular region of a specified radius centered at a specified latitude and longitude. A circle is expressed as a pair followed by a radius in meters.",
            "type": "Text"
        },
        {
            "@id": "http://schema.org/box",
            "name": "box",
            "title": "box",
            "description": "A box is the area enclosed by the rectangle formed by two points. The first point is the lower corner, the second point is the upper corner. A box is expressed as two points separated by a space character.",
            "type": "Text"
        },
        {
            "@id": "http://schema.org/addressCountry",
            "name": "addressCountry",
            "title": "addressCountry",
            "description": "The country. For example, USA. You can also provide the two-letter <a href=\"http://en.wikipedia.org/wiki/ISO_3166-1\">ISO 3166-1 alpha-2 country code</a>.",
            "type": "Country"
        },
        {
            "@id": "http://schema.org/postalCode",
            "name": "postalCode",
            "title": "postalCode",
            "description": "The postal code. For example, 94043.",
            "type": "Text"
        },
        {
            "@id": "http://schema.org/elevation",
            "name": "elevation",
            "title": "elevation",
            "description": "The elevation of a location (<a href=\"https://en.wikipedia.org/wiki/World_Geodetic_System\">WGS 84</a>).",
            "type": "Text"
        },
        {
            "@id": "http://schema.org/polygon",
            "name": "polygon",
            "title": "polygon",
            "description": "A polygon is the area enclosed by a point-to-point path for which the starting and ending points are the same. A polygon is expressed as a series of four or more space delimited points where the first and final points are identical.",
            "type": "Text"
        }
    ],
    "privileges": [
        {
            "mask": 15,
            "type": "global"
        },
        {
            "mask": 15,
            "type": "global",
            "account": "Administrators"
        }
    ]
}
