{
  "$schema": "https://themost-framework.github.io/themost/models/2018/2/schema.json",
  "@id": "https://universis.io/schemas/TimetableEvent",
  "name": "TimetableEvent",
  "description": "A timetable event",
  "title": "TimetableEvent",
  "abstract": false,
  "sealed": false,
  "inherits": "Event",
  "version": "0.4",
  "classPath": "./models/timetable-event-model",
  "fields": [
    {
      "name": "availablePlaces",
      "title": "Available Places",
      "description": "A collection of places associated with this timetable event.",
      "type": "Place",
      "many": true,
      "mapping": {
        "parentModel": "TimetableEvent",
        "childModel": "Place",
        "parentField": "id",
        "childField": "id",
        "associationType": "junction",
        "cascade": "delete"
      }
    },
    {
      "name": "availableEventTypes",
      "description": "A collection of types of events associated with this timetable event.",
      "type": "EventType",
      "mapping": {
        "childModel": "EventType",
        "childField": "id",
        "parentField": "id",
        "parentModel": "TimetableEvent",
        "associationType": "junction",
        "cascade": "delete"
      }
    },
    {
      "name": "academicYear",
      "description": "The academic year associated with this timetable event.",
      "type": "AcademicYear"
    },
    {
      "name": "academicPeriods",
      "description": "A collection of academic periods associated with this timetable event.",
      "type": "AcademicPeriod",
      "mapping": {
        "childModel": "AcademicPeriod",
        "childField": "id",
        "parentField": "id",
        "parentModel": "TimetableEvent",
        "associationType": "junction",
        "cascade": "delete"
      }
    },
    {
      "name": "examPeriods",
      "description": "A collection of exam periods associated with this timetable event.",
      "type": "ExamPeriod",
      "mapping": {
        "childModel": "ExamPeriod",
        "childField": "id",
        "parentField": "id",
        "parentModel": "TimetableEvent",
        "associationType": "junction",
        "cascade": "delete"
      }
    },
    {
      "name": "createExceptEvents",
      "title": "createExceptEvents",
      "description": "Determines whether events that occur during except hours should be created.",
      "type": "Boolean",
      "value": "javascript:return true;"
    }
  ],
  "eventListeners": [
    {
      "type": "@themost/data/previous-state-listener"
    },
    {
      "type": "./listeners/before-save-timetable-event-listener"
    },
    {
      "type": "./listeners/before-remove-timetable-event-listener"
    },
    {
      "type": "./listeners/expand-available-places-listener"
    }
  ],
  "privileges": [
    {
      "mask": 1,
      "type": "global",
      "account": "*"
    },
    {
      "mask": 31,
      "type": "global"
    },
    {
      "mask": 15,
      "type": "global",
      "account": "Administrators"
    }
  ]
}